Problema 1 - Checkpoint 4 - Relatório Final
…
library(tidyverse)
dados_series <- read.csv("https://raw.githubusercontent.com/nazareno/imdb-series/master/data/series_from_imdb.csv", sep = ",")

Respondendo a primeira pergunta

Para responder a primeira pergunta, utilizarei os dados sobre o número de votos de cada episódio, o número de episódios da série e suas respectivas avaliações, sendo assim pegarei as 5 séries mais votadas no meu conjunto de dados, para tanto primeiro preciso definir quais as séries mais votadas no conjunto de dados, usarei então a média do número de votos por episódio das séries como parâmetro para decidir quais a séries mais votadas, ordenando em ordem descrescente pela a média temos a seguinte tabela:

Tabela de séries mais votadas em ordem descrescente

# obtêm as séries mais votads em ordem descrescente
series_summarizadas <- dados_series %>% group_by(series_name) %>% summarise(numero_votos_media = mean(UserVotes)) %>% arrange(desc(numero_votos_media))

head(series_summarizadas, 31)

## # A tibble: 31 x 2
##         series_name numero_votos_media
##              <fctr>              <dbl>
##  1  Game of Thrones          22047.650
##  2         Sherlock          19415.400
##  3     Breaking Bad          12531.871
##  4     Black Mirror          12519.846
##  5 The Walking Dead           8276.667
##  6  Stranger Things           7753.125
##  7        Daredevil           5245.231
##  8         Mr Robot           4466.364
##  9            Flash           3568.768
## 10          The 100           3112.017
## # ... with 21 more rows
…
os episódios finais das séries menos populares, com menor número de votos, são mal avaliados se comparado com os outros episódios da série ?

os episódios escritos por George R. R. Martim(autor do livro de Game of Thrones) são bem votados segundo o IMDB ?

Respodendo a primeira pergunta indetificada na análise

Para responder essa pergunta pegarei um caminho parecido que utilizei para reposnder a primeira pergunta respondida anteriormente, pegarei as 5 séries menos votadas no meu conjunto de dados, para tanto primeiro preciso definir quais as séries mneos votadas no conjunto de dados, usarei então a média do número de votos por episódio das séries como parâmetro para decidir quais a séries mneos votadas, ordenando em ordem crescente pela a média temos a seguinte tabela:

Tabela da séries menos populares

series_menos_populares <- dados_series %>% group_by(series_name) %>% summarise(numero_votos_media = mean(UserVotes)) %>% arrange(numero_votos_media)
head(series_menos_populares, 31)

## # A tibble: 31 x 2
##                    series_name numero_votos_media
##                         <fctr>              <dbl>
##  1                     Scandal           319.7170
##  2            Greyâs Anatomy           527.0822
##  3                The Simpsons           912.3841
##  4               Modern Family           943.6489
##  5                Orphan Black           950.6000
##  6            Once Upon a Time           991.6397
##  7               The Blacklist          1013.2921
##  8 How to Get Away with Murder          1080.4222
##  9                      Sense8          1669.5652
## 10      Agents of S.H.I.E.L.D.          1860.4091
## # ... with 21 more rows
…
